<?xml version="1.0" encoding="utf-8"?>
<!-- Generator: Adobe Illustrator 23.0.1, SVG Export Plug-In . SVG Version: 6.00 Build 0)  -->
<svg version="1.1" id="Capa_1" xmlns="http://www.w3.org/2000/svg" xmlns:xlink="http://www.w3.org/1999/xlink" x="0px" y="0px"
	 viewBox="0 0 512 512" style="enable-background:new 0 0 512 512;" xml:space="preserve">
<style type="text/css">
	.st0{fill:#808080;stroke:#808080;stroke-width:20;stroke-miterlimit:10;}
</style>
<g>
	<path class="st0" d="M473.6,33.6H38.4c-15.9,0-28.9,13-28.9,28.9v286.9c0,15.9,13,28.9,28.9,28.9h141.5v71.2h-78
		c-8,0-14.4,6.5-14.4,14.4s6.5,14.4,14.4,14.4H410c8,0,14.4-6.5,14.4-14.4s-6.5-14.4-14.4-14.4h-78v-71.2h141.5
		c15.9,0,28.9-13,28.9-28.9V62.5C502.5,46.6,489.5,33.6,473.6,33.6z M303.2,449.5h-94.3v-71.2h94.3V449.5z M473.6,349.4
		c-12.7,0-425,0-435.2,0V62.5h435.2C473.6,355.6,473.7,349.4,473.6,349.4z"/>
</g>
</svg>
